module k8s.io/kube-state-metrics/v2

require (
	github.com/brancz/gojsontoyaml v0.1.0
	github.com/campoy/embedmd v1.0.0
	github.com/dgryski/go-jump v0.0.0-20170409065014-e1f439676b57
	github.com/google/go-cmp v0.5.5
	github.com/google/go-jsonnet v0.17.0
	github.com/jsonnet-bundler/jsonnet-bundler v0.4.1-0.20200708074244-ada055a225fa
	github.com/oklog/run v1.1.0
	github.com/pkg/errors v0.9.1
	github.com/prometheus/client_golang v1.11.0
	github.com/prometheus/client_model v0.2.0
	github.com/prometheus/common v0.30.0
	github.com/prometheus/exporter-toolkit v0.6.1
	github.com/robfig/cron/v3 v3.0.1
	github.com/spf13/pflag v1.0.5
	golang.org/x/tools v0.1.5
	k8s.io/api v0.22.1
	k8s.io/apimachinery v0.22.1
	k8s.io/autoscaler/vertical-pod-autoscaler v0.9.2
	k8s.io/client-go v0.22.1
	k8s.io/klog/v2 v2.10.0
)

require (
	cloud.google.com/go v0.65.0 // indirect
	github.com/Azure/go-autorest v14.2.0+incompatible // indirect
	github.com/Azure/go-autorest/autorest v0.11.18 // indirect
	github.com/Azure/go-autorest/autorest/adal v0.9.13 // indirect
	github.com/Azure/go-autorest/autorest/date v0.3.0 // indirect
	github.com/Azure/go-autorest/logger v0.2.1 // indirect
	github.com/Azure/go-autorest/tracing v0.6.0 // indirect
	github.com/alecthomas/template v0.0.0-20190718012654-fb15b899a751 // indirect
	github.com/alecthomas/units v0.0.0-20190924025748-f65c72e2690d // indirect
	github.com/beorn7/perks v1.0.1 // indirect
	github.com/cespare/xxhash/v2 v2.1.1 // indirect
	github.com/davecgh/go-spew v1.1.1 // indirect
	github.com/evanphx/json-patch v4.11.0+incompatible // indirect
	github.com/fatih/color v1.9.0 // indirect
	github.com/form3tech-oss/jwt-go v3.2.3+incompatible // indirect
	github.com/ghodss/yaml v1.0.0 // indirect
	github.com/go-kit/log v0.1.0 // indirect
	github.com/go-logfmt/logfmt v0.5.0 // indirect
	github.com/go-logr/logr v0.4.0 // indirect
	github.com/gogo/protobuf v1.3.2 // indirect
	github.com/golang/protobuf v1.5.2 // indirect
	github.com/google/gofuzz v1.1.0 // indirect
	github.com/googleapis/gnostic v0.5.5 // indirect
	github.com/imdario/mergo v0.3.5 // indirect
	github.com/jpillora/backoff v1.0.0 // indirect
	github.com/json-iterator/go v1.1.11 // indirect
	github.com/mattn/go-colorable v0.1.4 // indirect
	github.com/mattn/go-isatty v0.0.11 // indirect
	github.com/matttproud/golang_protobuf_extensions v1.0.1 // indirect
	github.com/modern-go/concurrent v0.0.0-20180306012644-bacd9c7ef1dd // indirect
	github.com/modern-go/reflect2 v1.0.1 // indirect
	github.com/mwitkow/go-conntrack v0.0.0-20190716064945-2f068394615f // indirect
	github.com/pmezard/go-difflib v1.0.0 // indirect
	github.com/prometheus/procfs v0.6.0 // indirect
	golang.org/x/crypto v0.0.0-20210616213533-5ff15b29337e // indirect
	golang.org/x/net v0.0.0-20210525063256-abc453219eb5 // indirect
	golang.org/x/oauth2 v0.0.0-20210514164344-f6687ab2804c // indirect
	golang.org/x/sys v0.0.0-20210616094352-59db8d763f22 // indirect
	golang.org/x/term v0.0.0-20210220032956-6a3ed077a48d // indirect
	golang.org/x/text v0.3.6 // indirect
	golang.org/x/time v0.0.0-20210723032227-1f47c861a9ac // indirect
	google.golang.org/appengine v1.6.6 // indirect
	google.golang.org/protobuf v1.26.0 // indirect
	gopkg.in/alecthomas/kingpin.v2 v2.2.6 // indirect
	gopkg.in/inf.v0 v0.9.1 // indirect
	gopkg.in/yaml.v2 v2.4.0 // indirect
	gopkg.in/yaml.v3 v3.0.0-20210107192922-496545a6307b // indirect
	k8s.io/kube-openapi v0.0.0-20210421082810-95288971da7e // indirect
	k8s.io/utils v0.0.0-20210707171843-4b05e18ac7d9 // indirect
	sigs.k8s.io/structured-merge-diff/v4 v4.1.2 // indirect
	sigs.k8s.io/yaml v1.2.0 // indirect
)

go 1.17
